%YAML 1.1
%TAG !u! tag:unity3d.com,2011:
--- !u!114 &11400000
MonoBehaviour:
  m_ObjectHideFlags: 0
  m_CorrespondingSourceObject: {fileID: 0}
  m_PrefabInstance: {fileID: 0}
  m_PrefabAsset: {fileID: 0}
  m_GameObject: {fileID: 0}
  m_Enabled: 1
  m_EditorHideFlags: 0
  m_Script: {fileID: 11500000, guid: f4cf6de20b2646f4193e999d2dee71e4, type: 3}
  m_Name: 1-HunterCardPack
  m_EditorClassIdentifier: 
  _sideType: 4
  _cost: 1
  _cards:
  - Id: 111
    Name: Helboar
    Texture: {fileID: 2800000, guid: 8e32027f5140f214cb3db939839d7088, type: 3}
    Attack: 2
    Health: 1
    Type: 2
  - Id: 112
    Name: Kolek
    Texture: {fileID: 2800000, guid: 5ab26a08c64b7954d8b5d354d8519d07, type: 3}
    Attack: 1
    Health: 2
    Type: 5
  - Id: 113
    Name: Marsuul Cub
    Texture: {fileID: 2800000, guid: e9c914676fdf4dd41aa881742a51c3ec, type: 3}
    Attack: 1
    Health: 1
    Type: 2
  - Id: 114
    Name: Mystery Winner
    Texture: {fileID: 2800000, guid: 8394e9d48e6fe2746bcf7abe582b378c, type: 3}
    Attack: 1
    Health: 1
    Type: 0
  - Id: 115
    Name: Rat
    Texture: {fileID: 2800000, guid: 37edcef9a67e12e479f35b65f35a5bf7, type: 3}
    Attack: 1
    Health: 1
    Type: 2
  - Id: 116
    Name: Reffuh
    Texture: {fileID: 2800000, guid: 123b8b9ec171ed641b61bc0e10545986, type: 3}
    Attack: 2
    Health: 1
    Type: 5
  - Id: 117
    Name: Shima
    Texture: {fileID: 2800000, guid: cf5630b97f47ac54395dae7d06210437, type: 3}
    Attack: 2
    Health: 2
    Type: 5
  - Id: 118
    Name: Snake
    Texture: {fileID: 2800000, guid: 688604aee03edef438722b19aa3648e0, type: 3}
    Attack: 1
    Health: 1
    Type: 2
  - Id: 119
    Name: Sunscale Raptor
    Texture: {fileID: 2800000, guid: e2b45387b20ceae4e9d065267bcf1628, type: 3}
    Attack: 1
    Health: 3
    Type: 2
  - Id: 1110
    Name: Swift Hyena
    Texture: {fileID: 2800000, guid: d212446a7aef65c4fa90c79f8c87f35d, type: 3}
    Attack: 1
    Health: 1
    Type: 2
  - Id: 1111
    Name: Wolpertinger
    Texture: {fileID: 2800000, guid: 9cf99d4f430d48541af6bb07e2c97e98, type: 3}
    Attack: 1
    Health: 1
    Type: 2
