%YAML 1.1
%TAG !u! tag:unity3d.com,2011:
--- !u!114 &11400000
MonoBehaviour:
  m_ObjectHideFlags: 0
  m_CorrespondingSourceObject: {fileID: 0}
  m_PrefabInstance: {fileID: 0}
  m_PrefabAsset: {fileID: 0}
  m_GameObject: {fileID: 0}
  m_Enabled: 1
  m_EditorHideFlags: 0
  m_Script: {fileID: 11500000, guid: f4cf6de20b2646f4193e999d2dee71e4, type: 3}
  m_Name: 1-WarriorCardPack
  m_EditorClassIdentifier: 
  _sideType: 2
  _cost: 1
  _cards:
  - Id: 121
    Name: Honor Student
    Texture: {fileID: 2800000, guid: 6e7b223322717394a8b8d309907e5c06, type: 3}
    Attack: 1
    Health: 1
    Type: 0
  - Id: 122
    Name: Imprisoned Gan'arg
    Texture: {fileID: 2800000, guid: 2c293f42138c64f419cde78dd3cda43c, type: 3}
    Attack: 2
    Health: 2
    Type: 5
  - Id: 123
    Name: Warsong Envoy
    Texture: {fileID: 2800000, guid: 1e9312fe3261b60478d60f2a70256346, type: 3}
    Attack: 1
    Health: 3
    Type: 0
