%YAML 1.1
%TAG !u! tag:unity3d.com,2011:
--- !u!114 &11400000
MonoBehaviour:
  m_ObjectHideFlags: 0
  m_CorrespondingSourceObject: {fileID: 0}
  m_PrefabInstance: {fileID: 0}
  m_PrefabAsset: {fileID: 0}
  m_GameObject: {fileID: 0}
  m_Enabled: 1
  m_EditorHideFlags: 0
  m_Script: {fileID: 11500000, guid: f4cf6de20b2646f4193e999d2dee71e4, type: 3}
  m_Name: 2-MageCardPack
  m_EditorClassIdentifier: 
  _sideType: 1
  _cost: 2
  _cards:
  - Id: 231
    Name: Apexis Smuggler
    Texture: {fileID: 2800000, guid: 185241882d1a92a4ab0ff73fa4a2e0bf, type: 3}
    Attack: 2
    Health: 3
    Type: 0
  - Id: 232
    Name: Astromancer Solarian
    Texture: {fileID: 2800000, guid: 253f43f15793de34a8fef16c9af66bdf, type: 3}
    Attack: 3
    Health: 2
    Type: 0
  - Id: 233
    Name: Confection Cyclone
    Texture: {fileID: 2800000, guid: 15812fadeb03fbd409bc8fa3e14fbd1a, type: 3}
    Attack: 3
    Health: 2
    Type: 3
  - Id: 234
    Name: Game Master
    Texture: {fileID: 2800000, guid: 01535b1803215b4499d77f0f3376f50e, type: 3}
    Attack: 2
    Health: 3
    Type: 0
  - Id: 235
    Name: Imprisoned Phoenix
    Texture: {fileID: 2800000, guid: 675b97579608106418d9f19dd95c5447, type: 3}
    Attack: 2
    Health: 3
    Type: 3
