%YAML 1.1
%TAG !u! tag:unity3d.com,2011:
--- !u!114 &11400000
MonoBehaviour:
  m_ObjectHideFlags: 0
  m_CorrespondingSourceObject: {fileID: 0}
  m_PrefabInstance: {fileID: 0}
  m_PrefabAsset: {fileID: 0}
  m_GameObject: {fileID: 0}
  m_Enabled: 1
  m_EditorHideFlags: 0
  m_Script: {fileID: 11500000, guid: f4cf6de20b2646f4193e999d2dee71e4, type: 3}
  m_Name: 2-WarriorCardPack
  m_EditorClassIdentifier: 
  _sideType: 2
  _cost: 2
  _cards:
  - Id: 221
    Name: Bumper Car
    Texture: {fileID: 2800000, guid: e802f4a381fe96442a481f27fe4bafd9, type: 3}
    Attack: 1
    Health: 3
    Type: 4
  - Id: 222
    Name: E.T.C., God of Metal
    Texture: {fileID: 2800000, guid: d61791c091407434f808eb6365995324, type: 3}
    Attack: 1
    Health: 4
    Type: 0
  - Id: 223
    Name: Man-at-Arms
    Texture: {fileID: 2800000, guid: f803538e9ba8d354da32df9b83e71261, type: 3}
    Attack: 2
    Health: 3
    Type: 0
  - Id: 224
    Name: Stage Hand
    Texture: {fileID: 2800000, guid: 49b1473c5124e9d4bb73f13d1a3c5a6d, type: 3}
    Attack: 3
    Health: 2
    Type: 4
