%YAML 1.1
%TAG !u! tag:unity3d.com,2011:
--- !u!114 &11400000
MonoBehaviour:
  m_ObjectHideFlags: 0
  m_CorrespondingSourceObject: {fileID: 0}
  m_PrefabInstance: {fileID: 0}
  m_PrefabAsset: {fileID: 0}
  m_GameObject: {fileID: 0}
  m_Enabled: 1
  m_EditorHideFlags: 0
  m_Script: {fileID: 11500000, guid: f4cf6de20b2646f4193e999d2dee71e4, type: 3}
  m_Name: 3-PriestCardPack
  m_EditorClassIdentifier: 
  _sideType: 3
  _cost: 3
  _cards:
  - Id: 341
    Name: Devout Dungeoneer
    Texture: {fileID: 2800000, guid: 42295aa174e45fa449168cf0867f6894, type: 3}
    Attack: 2
    Health: 3
    Type: 0
  - Id: 342
    Name: Dragonmaw Overseer
    Texture: {fileID: 2800000, guid: 83e9e38bda707f34a9d5662a5c3e6bc8, type: 3}
    Attack: 2
    Health: 2
    Type: 0
  - Id: 343
    Name: Fairground Fool
    Texture: {fileID: 2800000, guid: 4a5edbcf0c12f0b49845323caa485276, type: 3}
    Attack: 4
    Health: 3
    Type: 0
