%YAML 1.1
%TAG !u! tag:unity3d.com,2011:
--- !u!114 &11400000
MonoBehaviour:
  m_ObjectHideFlags: 0
  m_CorrespondingSourceObject: {fileID: 0}
  m_PrefabInstance: {fileID: 0}
  m_PrefabAsset: {fileID: 0}
  m_GameObject: {fileID: 0}
  m_Enabled: 1
  m_EditorHideFlags: 0
  m_Script: {fileID: 11500000, guid: f4cf6de20b2646f4193e999d2dee71e4, type: 3}
  m_Name: 7-HunterCardPack
  m_EditorClassIdentifier: 
  _sideType: 4
  _cost: 7
  _cards:
  - Id: 711
    Name: Darkmoon Tonk
    Texture: {fileID: 2800000, guid: bc30e3c5c8a709c46b2b89b982e57c61, type: 3}
    Attack: 8
    Health: 5
    Type: 4
