%YAML 1.1
%TAG !u! tag:unity3d.com,2011:
--- !u!114 &11400000
MonoBehaviour:
  m_ObjectHideFlags: 0
  m_CorrespondingSourceObject: {fileID: 0}
  m_PrefabInstance: {fileID: 0}
  m_PrefabAsset: {fileID: 0}
  m_GameObject: {fileID: 0}
  m_Enabled: 1
  m_EditorHideFlags: 0
  m_Script: {fileID: 11500000, guid: f4cf6de20b2646f4193e999d2dee71e4, type: 3}
  m_Name: 9-PriestCardPack
  m_EditorClassIdentifier: 
  _sideType: 3
  _cost: 9
  _cards:
  - Id: 941
    Name: Blood of G'huun
    Texture: {fileID: 2800000, guid: eb4b9ab30069fe949b65aaef7b3ea8f6, type: 3}
    Attack: 8
    Health: 8
    Type: 3
