%YAML 1.1
%TAG !u! tag:unity3d.com,2011:
--- !u!114 &11400000
MonoBehaviour:
  m_ObjectHideFlags: 0
  m_CorrespondingSourceObject: {fileID: 0}
  m_PrefabInstance: {fileID: 0}
  m_PrefabAsset: {fileID: 0}
  m_GameObject: {fileID: 0}
  m_Enabled: 1
  m_EditorHideFlags: 0
  m_Script: {fileID: 11500000, guid: f4cf6de20b2646f4193e999d2dee71e4, type: 3}
  m_Name: 9-WarriorCardPack
  m_EditorClassIdentifier: 
  _sideType: 2
  _cost: 9
  _cards:
  - Id: 921
    Name: Rattlegore
    Texture: {fileID: 2800000, guid: e8e5ab8eca5d25a4c9654c06ca36989f, type: 3}
    Attack: 9
    Health: 9
    Type: 0
